{
    "portals": [
        {
            "id": 2,
            "versionNumber": 0,
            "thumbnail": "https://us.123rf.com/450wm/zeber/zeber1810/zeber181000152/110078005-fall-landscape-colorful-fall-nature-scene.jpg?ver=6",
            "blurredThumbnail": "https://us.123rf.com/450wm/zeber/zeber1810/zeber181000152/110078005-fall-landscape-colorful-fall-nature-scene.jpg?ver=6",
            "name": "hiss",
            "tags": [
                {
                    "id": 55,
                    "name": "indoor"
                },
                {
                    "id": 58,
                    "name": "car"
                },
                {
                    "id": 66,
                    "name": "sea"
                }
            ]
        },
        {
            "id": 3,
            "thumbnail": "https://images.unsplash.com/photo-1530354011846-8b8ffc882eed?ixlib=rb-1.2.1&ixid=eyJhcHBfaWQiOjEyMDd9&w=1000&q=80",
            "blurredThumbnail": "https://images.unsplash.com/photo-1530354011846-8b8ffc882eed?ixlib=rb-1.2.1&ixid=eyJhcHBfaWQiOjEyMDd9&w=1000&q=80",
            "name": "car",
            "tags": [
                {
                    "id": 55,
                    "name": "indoor"
                },
                {
                    "id": 58,
                    "name": "car"
                },
                {
                    "id": 66,
                    "name": "sea"
                }
            ]
        },
        {
            "id": 5,
            "thumbnail": "https://www.happybrainscience.com/wp-content/uploads/2017/07/derwent-morning-Cropped.jpg",
            "blurredThumbnail": "https://www.happybrainscience.com/wp-content/uploads/2017/07/derwent-morning-Cropped.jpg",
            "name": "car",
            "tags": [
                {
                    "id": 55,
                    "name": "indoor"
                },
                {
                    "id": 58,
                    "name": "car"
                },
                {
                    "id": 66,
                    "name": "sea"
                }
            ]
        },
        {
            "id": 9,
            "thumbnail": "https://all.accor.com/imagerie/brands/img-thalassa.jpg",
            "blurredThumbnail": "https://all.accor.com/imagerie/brands/img-thalassa.jpg",
            "name": "hiss",
            "tags": [
                {
                    "id": 55,
                    "name": "indoor"
                },
                {
                    "id": 58,
                    "name": "car"
                },
                {
                    "id": 66,
                    "name": "sea"
                }
            ]
        },
        {
            "id": 22,
            "thumbnail": "https://smartwatermagazine.com/sites/default/files/styles/thumbnail-830x455/public/salty-water-in-bangkok-is-new-reality-as-sea-pushes-farther-inland-thomson-reuters.jpg?itok=cXssP_fw",
            "blurredThumbnail": "https://smartwatermagazine.com/sites/default/files/styles/thumbnail-830x455/public/salty-water-in-bangkok-is-new-reality-as-sea-pushes-farther-inland-thomson-reuters.jpg?itok=cXssP_fw",
            "name": "car",
            "tags": [
                {
                    "id": 55,
                    "name": "indoor"
                },
                {
                    "id": 58,
                    "name": "car"
                },
                {
                    "id": 66,
                    "name": "sea"
                }
            ]
        },{
            "id": 2,
            "thumbnail": "https://us.123rf.com/450wm/zeber/zeber1810/zeber181000152/110078005-fall-landscape-colorful-fall-nature-scene.jpg?ver=6",
            "blurredThumbnail": "https://us.123rf.com/450wm/zeber/zeber1810/zeber181000152/110078005-fall-landscape-colorful-fall-nature-scene.jpg?ver=6",
            "name": "hiss",
            "tags": [
                {
                    "id": 55,
                    "name": "indoor"
                },
                {
                    "id": 58,
                    "name": "car"
                },
                {
                    "id": 66,
                    "name": "sea"
                }
            ]
        },
        {
            "id": 3,
            "thumbnail": "https://images.unsplash.com/photo-1530354011846-8b8ffc882eed?ixlib=rb-1.2.1&ixid=eyJhcHBfaWQiOjEyMDd9&w=1000&q=80",
            "blurredThumbnail": "https://images.unsplash.com/photo-1530354011846-8b8ffc882eed?ixlib=rb-1.2.1&ixid=eyJhcHBfaWQiOjEyMDd9&w=1000&q=80",
            "name": "car",
            "tags": [
                {
                    "id": 55,
                    "name": "indoor"
                },
                {
                    "id": 58,
                    "name": "car"
                },
                {
                    "id": 66,
                    "name": "sea"
                }
            ]
        },
        {
            "id": 5,
            "thumbnail": "https://www.happybrainscience.com/wp-content/uploads/2017/07/derwent-morning-Cropped.jpg",
            "blurredThumbnail": "https://www.happybrainscience.com/wp-content/uploads/2017/07/derwent-morning-Cropped.jpg",
            "name": "hiss",
            "tags": [
                {
                    "id": 55,
                    "name": "indoor"
                },
                {
                    "id": 58,
                    "name": "car"
                },
                {
                    "id": 66,
                    "name": "sea"
                }
            ]
        },
        {
            "id": 9,
            "thumbnail": "https://all.accor.com/imagerie/brands/img-thalassa.jpg",
            "blurredThumbnail": "https://all.accor.com/imagerie/brands/img-thalassa.jpg",
            "name": "hiss",
            "tags": [
                {
                    "id": 55,
                    "name": "indoor"
                },
                {
                    "id": 58,
                    "name": "car"
                },
                {
                    "id": 66,
                    "name": "sea"
                }
            ]
        },
        {
            "id": 22,
            "thumbnail": "https://smartwatermagazine.com/sites/default/files/styles/thumbnail-830x455/public/salty-water-in-bangkok-is-new-reality-as-sea-pushes-farther-inland-thomson-reuters.jpg?itok=cXssP_fw",
            "blurredThumbnail": "https://smartwatermagazine.com/sites/default/files/styles/thumbnail-830x455/public/salty-water-in-bangkok-is-new-reality-as-sea-pushes-farther-inland-thomson-reuters.jpg?itok=cXssP_fw",
            "name": "hiss",
            "tags": [
                {
                    "id": 55,
                    "name": "indoor"
                },
                {
                    "id": 58,
                    "name": "car"
                },
                {
                    "id": 66,
                    "name": "sea"
                }
            ]
        },{
            "id": 2,
            "thumbnail": "https://us.123rf.com/450wm/zeber/zeber1810/zeber181000152/110078005-fall-landscape-colorful-fall-nature-scene.jpg?ver=6",
            "blurredThumbnail": "https://us.123rf.com/450wm/zeber/zeber1810/zeber181000152/110078005-fall-landscape-colorful-fall-nature-scene.jpg?ver=6",
            "name": "car",
            "tags": [
                {
                    "id": 55,
                    "name": "indoor"
                },
                {
                    "id": 58,
                    "name": "car"
                },
                {
                    "id": 66,
                    "name": "sea"
                }
            ]
        },
        {
            "id": 3,
            "thumbnail": "https://images.unsplash.com/photo-1530354011846-8b8ffc882eed?ixlib=rb-1.2.1&ixid=eyJhcHBfaWQiOjEyMDd9&w=1000&q=80",
            "blurredThumbnail": "https://images.unsplash.com/photo-1530354011846-8b8ffc882eed?ixlib=rb-1.2.1&ixid=eyJhcHBfaWQiOjEyMDd9&w=1000&q=80",
            "name": "car",
            "tags": [
                {
                    "id": 55,
                    "name": "indoor"
                },
                {
                    "id": 58,
                    "name": "car"
                },
                {
                    "id": 66,
                    "name": "sea"
                }
            ]
        },
        {
            "id": 5,
            "thumbnail": "https://www.happybrainscience.com/wp-content/uploads/2017/07/derwent-morning-Cropped.jpg",
            "blurredThumbnail": "https://www.happybrainscience.com/wp-content/uploads/2017/07/derwent-morning-Cropped.jpg",
            "name": "car",
            "tags": [
                {
                    "id": 55,
                    "name": "indoor"
                },
                {
                    "id": 58,
                    "name": "car"
                },
                {
                    "id": 66,
                    "name": "sea"
                }
            ]
        },
        {
            "id": 9,
            "thumbnail": "https://all.accor.com/imagerie/brands/img-thalassa.jpg",
            "blurredThumbnail": "https://all.accor.com/imagerie/brands/img-thalassa.jpg",
            "name": "lolo",
            "tags": [
                {
                    "id": 55,
                    "name": "indoor"
                },
                {
                    "id": 58,
                    "name": "car"
                },
                {
                    "id": 66,
                    "name": "sea"
                }
            ]
        },
        {
            "id": 22,
            "thumbnail": "https://smartwatermagazine.com/sites/default/files/styles/thumbnail-830x455/public/salty-water-in-bangkok-is-new-reality-as-sea-pushes-farther-inland-thomson-reuters.jpg?itok=cXssP_fw",
            "blurredThumbnail": "https://smartwatermagazine.com/sites/default/files/styles/thumbnail-830x455/public/salty-water-in-bangkok-is-new-reality-as-sea-pushes-farther-inland-thomson-reuters.jpg?itok=cXssP_fw",
            "name": "lolo",
            "tags": [
                {
                    "id": 55,
                    "name": "indoor"
                },
                {
                    "id": 58,
                    "name": "car"
                },
                {
                    "id": 66,
                    "name": "sea"
                }
            ]
        },{
            "id": 2,
            "thumbnail": "https://us.123rf.com/450wm/zeber/zeber1810/zeber181000152/110078005-fall-landscape-colorful-fall-nature-scene.jpg?ver=6",
            "blurredThumbnail": "https://us.123rf.com/450wm/zeber/zeber1810/zeber181000152/110078005-fall-landscape-colorful-fall-nature-scene.jpg?ver=6",
            "name": "lolor",
            "tags": [
                {
                    "id": 55,
                    "name": "indoor"
                },
                {
                    "id": 58,
                    "name": "car"
                },
                {
                    "id": 66,
                    "name": "sea"
                }
            ]
        },
        {
            "id": 3,
            "thumbnail": "https://images.unsplash.com/photo-1530354011846-8b8ffc882eed?ixlib=rb-1.2.1&ixid=eyJhcHBfaWQiOjEyMDd9&w=1000&q=80",
            "blurredThumbnail": "https://images.unsplash.com/photo-1530354011846-8b8ffc882eed?ixlib=rb-1.2.1&ixid=eyJhcHBfaWQiOjEyMDd9&w=1000&q=80",
            "name": "lolor",
            "tags": [
                {
                    "id": 55,
                    "name": "indoor"
                },
                {
                    "id": 58,
                    "name": "car"
                },
                {
                    "id": 66,
                    "name": "sea"
                }
            ]
        },
        {
            "id": 5,
            "thumbnail": "https://www.happybrainscience.com/wp-content/uploads/2017/07/derwent-morning-Cropped.jpg",
            "blurredThumbnail": "https://www.happybrainscience.com/wp-content/uploads/2017/07/derwent-morning-Cropped.jpg",
            "name": "car",
            "tags": [
                {
                    "id": 55,
                    "name": "indoor"
                },
                {
                    "id": 58,
                    "name": "car"
                },
                {
                    "id": 66,
                    "name": "sea"
                }
            ]
        },
        {
            "id": 9,
            "thumbnail": "https://all.accor.com/imagerie/brands/img-thalassa.jpg",
            "blurredThumbnail": "https://all.accor.com/imagerie/brands/img-thalassa.jpg",
            "name": "lolo",
            "tags": [
                {
                    "id": 55,
                    "name": "indoor"
                },
                {
                    "id": 58,
                    "name": "car"
                },
                {
                    "id": 66,
                    "name": "sea"
                }
            ]
        },
        {
            "id": 22,
            "thumbnail": "https://smartwatermagazine.com/sites/default/files/styles/thumbnail-830x455/public/salty-water-in-bangkok-is-new-reality-as-sea-pushes-farther-inland-thomson-reuters.jpg?itok=cXssP_fw",
            "blurredThumbnail": "https://smartwatermagazine.com/sites/default/files/styles/thumbnail-830x455/public/salty-water-in-bangkok-is-new-reality-as-sea-pushes-farther-inland-thomson-reuters.jpg?itok=cXssP_fw",
            "name": "car",
            "tags": [
                {
                    "id": 55,
                    "name": "indoor"
                },
                {
                    "id": 58,
                    "name": "car"
                },
                {
                    "id": 66,
                    "name": "sea"
                }
            ]
        },{
            "id": 2,
            "thumbnail": "https://us.123rf.com/450wm/zeber/zeber1810/zeber181000152/110078005-fall-landscape-colorful-fall-nature-scene.jpg?ver=6",
            "blurredThumbnail": "https://us.123rf.com/450wm/zeber/zeber1810/zeber181000152/110078005-fall-landscape-colorful-fall-nature-scene.jpg?ver=6",
            "name": "car",
            "tags": [
                {
                    "id": 55,
                    "name": "indoor"
                },
                {
                    "id": 58,
                    "name": "car"
                },
                {
                    "id": 66,
                    "name": "sea"
                }
            ]
        },
        {
            "id": 3,
            "thumbnail": "https://images.unsplash.com/photo-1530354011846-8b8ffc882eed?ixlib=rb-1.2.1&ixid=eyJhcHBfaWQiOjEyMDd9&w=1000&q=80",
            "blurredThumbnail": "https://images.unsplash.com/photo-1530354011846-8b8ffc882eed?ixlib=rb-1.2.1&ixid=eyJhcHBfaWQiOjEyMDd9&w=1000&q=80",
            "name": "car",
            "tags": [
                {
                    "id": 55,
                    "name": "indoor"
                },
                {
                    "id": 58,
                    "name": "car"
                },
                {
                    "id": 66,
                    "name": "sea"
                }
            ]
        },
        {
            "id": 5,
            "thumbnail": "https://www.happybrainscience.com/wp-content/uploads/2017/07/derwent-morning-Cropped.jpg",
            "blurredThumbnail": "https://www.happybrainscience.com/wp-content/uploads/2017/07/derwent-morning-Cropped.jpg",
            "name": "car",
            "tags": [
                {
                    "id": 55,
                    "name": "indoor"
                },
                {
                    "id": 58,
                    "name": "car"
                },
                {
                    "id": 66,
                    "name": "sea"
                }
            ]
        },
        {
            "id": 9,
            "thumbnail": "https://all.accor.com/imagerie/brands/img-thalassa.jpg",
            "blurredThumbnail": "https://all.accor.com/imagerie/brands/img-thalassa.jpg",
            "name": "car",
            "tags": [
                {
                    "id": 55,
                    "name": "indoor"
                },
                {
                    "id": 58,
                    "name": "car"
                },
                {
                    "id": 66,
                    "name": "sea"
                }
            ]
        },
        {
            "id": 22,
            "thumbnail": "https://smartwatermagazine.com/sites/default/files/styles/thumbnail-830x455/public/salty-water-in-bangkok-is-new-reality-as-sea-pushes-farther-inland-thomson-reuters.jpg?itok=cXssP_fw",
            "blurredThumbnail": "https://smartwatermagazine.com/sites/default/files/styles/thumbnail-830x455/public/salty-water-in-bangkok-is-new-reality-as-sea-pushes-farther-inland-thomson-reuters.jpg?itok=cXssP_fw",
            "name": "car",
            "tags": [
                {
                    "id": 55,
                    "name": "indoor"
                },
                {
                    "id": 58,
                    "name": "car"
                },
                {
                    "id": 66,
                    "name": "sea"
                }
            ]
        },{
            "id": 2,
            "thumbnail": "https://us.123rf.com/450wm/zeber/zeber1810/zeber181000152/110078005-fall-landscape-colorful-fall-nature-scene.jpg?ver=6",
            "blurredThumbnail": "https://us.123rf.com/450wm/zeber/zeber1810/zeber181000152/110078005-fall-landscape-colorful-fall-nature-scene.jpg?ver=6",
            "name": "car",
            "tags": [
                {
                    "id": 55,
                    "name": "indoor"
                },
                {
                    "id": 58,
                    "name": "car"
                },
                {
                    "id": 66,
                    "name": "sea"
                }
            ]
        },
        {
            "id": 3,
            "thumbnail": "https://images.unsplash.com/photo-1530354011846-8b8ffc882eed?ixlib=rb-1.2.1&ixid=eyJhcHBfaWQiOjEyMDd9&w=1000&q=80",
            "blurredThumbnail": "https://images.unsplash.com/photo-1530354011846-8b8ffc882eed?ixlib=rb-1.2.1&ixid=eyJhcHBfaWQiOjEyMDd9&w=1000&q=80",
            "name": "car",
            "tags": [
                {
                    "id": 55,
                    "name": "indoor"
                },
                {
                    "id": 58,
                    "name": "car"
                },
                {
                    "id": 66,
                    "name": "sea"
                }
            ]
        },
        {
            "id": 5,
            "thumbnail": "https://www.happybrainscience.com/wp-content/uploads/2017/07/derwent-morning-Cropped.jpg",
            "blurredThumbnail": "https://www.happybrainscience.com/wp-content/uploads/2017/07/derwent-morning-Cropped.jpg",
            "name": "car",
            "tags": [
                {
                    "id": 55,
                    "name": "indoor"
                },
                {
                    "id": 58,
                    "name": "car"
                },
                {
                    "id": 66,
                    "name": "sea"
                }
            ]
        },
        {
            "id": 9,
            "thumbnail": "https://all.accor.com/imagerie/brands/img-thalassa.jpg",
            "blurredThumbnail": "https://all.accor.com/imagerie/brands/img-thalassa.jpg",
            "name": "car",
            "tags": [
                {
                    "id": 55,
                    "name": "indoor"
                },
                {
                    "id": 58,
                    "name": "car"
                },
                {
                    "id": 66,
                    "name": "sea"
                }
            ]
        },
        {
            "id": 22,
            "thumbnail": "https://smartwatermagazine.com/sites/default/files/styles/thumbnail-830x455/public/salty-water-in-bangkok-is-new-reality-as-sea-pushes-farther-inland-thomson-reuters.jpg?itok=cXssP_fw",
            "blurredThumbnail": "https://smartwatermagazine.com/sites/default/files/styles/thumbnail-830x455/public/salty-water-in-bangkok-is-new-reality-as-sea-pushes-farther-inland-thomson-reuters.jpg?itok=cXssP_fw",
            "name": "car",
            "tags": [
                {
                    "id": 55,
                    "name": "indoor"
                },
                {
                    "id": 58,
                    "name": "car"
                },
                {
                    "id": 66,
                    "name": "sea"
                }
            ]
        },{
            "id": 2,
            "thumbnail": "https://us.123rf.com/450wm/zeber/zeber1810/zeber181000152/110078005-fall-landscape-colorful-fall-nature-scene.jpg?ver=6",
            "blurredThumbnail": "https://us.123rf.com/450wm/zeber/zeber1810/zeber181000152/110078005-fall-landscape-colorful-fall-nature-scene.jpg?ver=6",
            "name": "car",
            "tags": [
                {
                    "id": 55,
                    "name": "indoor"
                },
                {
                    "id": 58,
                    "name": "car"
                },
                {
                    "id": 66,
                    "name": "sea"
                }
            ]
        },
        {
            "id": 3,
            "thumbnail": "https://images.unsplash.com/photo-1530354011846-8b8ffc882eed?ixlib=rb-1.2.1&ixid=eyJhcHBfaWQiOjEyMDd9&w=1000&q=80",
            "blurredThumbnail": "https://images.unsplash.com/photo-1530354011846-8b8ffc882eed?ixlib=rb-1.2.1&ixid=eyJhcHBfaWQiOjEyMDd9&w=1000&q=80",
            "name": "car",
            "tags": [
                {
                    "id": 55,
                    "name": "indoor"
                },
                {
                    "id": 58,
                    "name": "car"
                },
                {
                    "id": 66,
                    "name": "sea"
                }
            ]
        },
        {
            "id": 5,
            "thumbnail": "https://www.happybrainscience.com/wp-content/uploads/2017/07/derwent-morning-Cropped.jpg",
            "blurredThumbnail": "https://www.happybrainscience.com/wp-content/uploads/2017/07/derwent-morning-Cropped.jpg",
            "name": "car",
            "tags": [
                {
                    "id": 55,
                    "name": "indoor"
                },
                {
                    "id": 58,
                    "name": "car"
                },
                {
                    "id": 66,
                    "name": "sea"
                }
            ]
        },
        {
            "id": 9,
            "thumbnail": "https://all.accor.com/imagerie/brands/img-thalassa.jpg",
            "blurredThumbnail": "https://all.accor.com/imagerie/brands/img-thalassa.jpg",
            "name": "car",
            "tags": [
                {
                    "id": 55,
                    "name": "indoor"
                },
                {
                    "id": 58,
                    "name": "car"
                },
                {
                    "id": 66,
                    "name": "sea"
                }
            ]
        },
        {
            "id": 22,
            "thumbnail": "https://smartwatermagazine.com/sites/default/files/styles/thumbnail-830x455/public/salty-water-in-bangkok-is-new-reality-as-sea-pushes-farther-inland-thomson-reuters.jpg?itok=cXssP_fw",
            "blurredThumbnail": "https://smartwatermagazine.com/sites/default/files/styles/thumbnail-830x455/public/salty-water-in-bangkok-is-new-reality-as-sea-pushes-farther-inland-thomson-reuters.jpg?itok=cXssP_fw",
            "name": "car",
            "tags": [
                {
                    "id": 55,
                    "name": "indoor"
                },
                {
                    "id": 58,
                    "name": "car"
                },
                {
                    "id": 66,
                    "name": "sea"
                }
            ]
        },{
            "id": 2,
            "thumbnail": "https://us.123rf.com/450wm/zeber/zeber1810/zeber181000152/110078005-fall-landscape-colorful-fall-nature-scene.jpg?ver=6",
            "blurredThumbnail": "https://us.123rf.com/450wm/zeber/zeber1810/zeber181000152/110078005-fall-landscape-colorful-fall-nature-scene.jpg?ver=6",
            "name": "car",
            "tags": [
                {
                    "id": 55,
                    "name": "indoor"
                },
                {
                    "id": 58,
                    "name": "car"
                },
                {
                    "id": 66,
                    "name": "sea"
                }
            ]
        },
        {
            "id": 3,
            "thumbnail": "https://images.unsplash.com/photo-1530354011846-8b8ffc882eed?ixlib=rb-1.2.1&ixid=eyJhcHBfaWQiOjEyMDd9&w=1000&q=80",
            "blurredThumbnail": "https://images.unsplash.com/photo-1530354011846-8b8ffc882eed?ixlib=rb-1.2.1&ixid=eyJhcHBfaWQiOjEyMDd9&w=1000&q=80",
            "name": "car",
            "tags": [
                {
                    "id": 55,
                    "name": "indoor"
                },
                {
                    "id": 58,
                    "name": "car"
                },
                {
                    "id": 66,
                    "name": "sea"
                }
            ]
        },
        {
            "id": 5,
            "thumbnail": "https://www.happybrainscience.com/wp-content/uploads/2017/07/derwent-morning-Cropped.jpg",
            "blurredThumbnail": "https://www.happybrainscience.com/wp-content/uploads/2017/07/derwent-morning-Cropped.jpg",
            "name": "car",
            "tags": [
                {
                    "id": 55,
                    "name": "indoor"
                },
                {
                    "id": 58,
                    "name": "car"
                },
                {
                    "id": 66,
                    "name": "sea"
                }
            ]
        },
        {
            "id": 9,
            "thumbnail": "https://all.accor.com/imagerie/brands/img-thalassa.jpg",
            "blurredThumbnail": "https://all.accor.com/imagerie/brands/img-thalassa.jpg",
            "name": "car",
            "tags": [
                {
                    "id": 55,
                    "name": "indoor"
                },
                {
                    "id": 58,
                    "name": "car"
                },
                {
                    "id": 66,
                    "name": "sea"
                }
            ]
        },
        {
            "id": 22,
            "thumbnail": "https://smartwatermagazine.com/sites/default/files/styles/thumbnail-830x455/public/salty-water-in-bangkok-is-new-reality-as-sea-pushes-farther-inland-thomson-reuters.jpg?itok=cXssP_fw",
            "blurredThumbnail": "https://smartwatermagazine.com/sites/default/files/styles/thumbnail-830x455/public/salty-water-in-bangkok-is-new-reality-as-sea-pushes-farther-inland-thomson-reuters.jpg?itok=cXssP_fw",
            "name": "car",
            "tags": [
                {
                    "id": 55,
                    "name": "indoor"
                },
                {
                    "id": 58,
                    "name": "car"
                },
                {
                    "id": 66,
                    "name": "sea"
                }
            ]
        },{
            "id": 2,
            "thumbnail": "https://us.123rf.com/450wm/zeber/zeber1810/zeber181000152/110078005-fall-landscape-colorful-fall-nature-scene.jpg?ver=6",
            "blurredThumbnail": "https://us.123rf.com/450wm/zeber/zeber1810/zeber181000152/110078005-fall-landscape-colorful-fall-nature-scene.jpg?ver=6",
            "name": "car",
            "tags": [
                {
                    "id": 55,
                    "name": "indoor"
                },
                {
                    "id": 58,
                    "name": "car"
                },
                {
                    "id": 66,
                    "name": "sea"
                }
            ]
        },
        {
            "id": 3,
            "thumbnail": "https://images.unsplash.com/photo-1530354011846-8b8ffc882eed?ixlib=rb-1.2.1&ixid=eyJhcHBfaWQiOjEyMDd9&w=1000&q=80",
            "blurredThumbnail": "https://images.unsplash.com/photo-1530354011846-8b8ffc882eed?ixlib=rb-1.2.1&ixid=eyJhcHBfaWQiOjEyMDd9&w=1000&q=80",
            "name": "car",
            "tags": [
                {
                    "id": 55,
                    "name": "indoor"
                },
                {
                    "id": 58,
                    "name": "car"
                },
                {
                    "id": 66,
                    "name": "sea"
                }
            ]
        },
        {
            "id": 5,
            "thumbnail": "https://www.happybrainscience.com/wp-content/uploads/2017/07/derwent-morning-Cropped.jpg",
            "blurredThumbnail": "https://www.happybrainscience.com/wp-content/uploads/2017/07/derwent-morning-Cropped.jpg",
            "name": "car",
            "tags": [
                {
                    "id": 55,
                    "name": "indoor"
                },
                {
                    "id": 58,
                    "name": "car"
                },
                {
                    "id": 66,
                    "name": "sea"
                }
            ]
        },
        {
            "id": 9,
            "thumbnail": "https://all.accor.com/imagerie/brands/img-thalassa.jpg",
            "blurredThumbnail": "https://all.accor.com/imagerie/brands/img-thalassa.jpg",
            "name": "car",
            "tags": [
                {
                    "id": 55,
                    "name": "indoor"
                },
                {
                    "id": 58,
                    "name": "car"
                },
                {
                    "id": 66,
                    "name": "sea"
                }
            ]
        },
        {
            "id": 22,
            "thumbnail": "https://smartwatermagazine.com/sites/default/files/styles/thumbnail-830x455/public/salty-water-in-bangkok-is-new-reality-as-sea-pushes-farther-inland-thomson-reuters.jpg?itok=cXssP_fw",
            "blurredThumbnail": "https://smartwatermagazine.com/sites/default/files/styles/thumbnail-830x455/public/salty-water-in-bangkok-is-new-reality-as-sea-pushes-farther-inland-thomson-reuters.jpg?itok=cXssP_fw",
            "name": "car",
            "tags": [
                {
                    "id": 55,
                    "name": "indoor"
                },
                {
                    "id": 58,
                    "name": "car"
                },
                {
                    "id": 66,
                    "name": "sea"
                }
            ]
        }
    ]
}