{
    "m_SelectedDeviceId": "R58N406HGYN",
    "m_SelectedPackage": {
        "deviceId": "R58N406HGYN",
        "name": "com.kaviar.Monagence",
        "processId": 16499,
        "exited": false
    },
    "m_SelectedPriority": 1,
    "m_KnownPackagesForSerialization": [
        {
            "deviceId": "RZ8R70XZQHV",
            "name": "com.sec.android.app.launcher",
            "processId": 6525,
            "exited": false
        },
        {
            "deviceId": "RZ8R70XZQHV",
            "name": "com.kaviar.Gate",
            "processId": 9504,
            "exited": true
        },
        {
            "deviceId": "RZ8R70XZQHV",
            "name": "com.kaviar.Gate",
            "processId": 10274,
            "exited": true
        },
        {
            "deviceId": "RZ8R70XZQHV",
            "name": "com.kaviar.Gate",
            "processId": 11326,
            "exited": true
        },
        {
            "deviceId": "RZ8R70XZQHV",
            "name": "com.kaviar.Gate",
            "processId": 14232,
            "exited": true
        },
        {
            "deviceId": "RZ8R70XZQHV",
            "name": "com.kaviar.Gate",
            "processId": 16211,
            "exited": false
        },
        {
            "deviceId": "R58N406HGYN",
            "name": "com.kaviar.Monagence",
            "processId": 21356,
            "exited": true
        },
        {
            "deviceId": "R58N406HGYN",
            "name": "com.sec.android.app.launcher",
            "processId": 5932,
            "exited": true
        },
        {
            "deviceId": "R58N406HGYN",
            "name": "com.kaviar.Monagence",
            "processId": 2085,
            "exited": true
        },
        {
            "deviceId": "R58N406HGYN",
            "name": "com.kaviar.Monagence",
            "processId": 16923,
            "exited": true
        },
        {
            "deviceId": "R58N406HGYN",
            "name": "com.kaviar.Monagence",
            "processId": 13574,
            "exited": true
        },
        {
            "deviceId": "R58N406HGYN",
            "name": "com.sec.android.app.launcher",
            "processId": 5992,
            "exited": false
        },
        {
            "deviceId": "R58N406HGYN",
            "name": "com.kaviar.Monagence",
            "processId": 16499,
            "exited": false
        }
    ],
    "m_Tags": {
        "m_Entries": [
            {
                "m_Name": "Filter by all listed tags",
                "m_Selected": false
            },
            {
                "m_Name": "No Filter",
                "m_Selected": false
            },
            {
                "m_Name": "",
                "m_Selected": false
            },
            {
                "m_Name": "Tag Control...",
                "m_Selected": false
            },
            {
                "m_Name": "",
                "m_Selected": false
            },
            {
                "m_Name": "Unity",
                "m_Selected": true
            },
            {
                "m_Name": "CRASH",
                "m_Selected": false
            }
        ]
    },
    "m_MemoryViewerState": {
        "MemoryWindowHeight": 300.0,
        "MemoryWindowWidth": 170.0,
        "MemoryTypeEnabled": [
            true,
            true,
            true,
            true,
            true,
            true,
            true,
            true,
            true,
            true
        ],
        "MemoryGroup": 2,
        "Behavior": 0
    },
    "m_FilterOptions": {
        "m_Filter": "",
        "m_UseRegularExpressions": false,
        "m_MatchCase": false
    },
    "m_SymbolPaths": [],
    "m_CaptureVideoSettings": {
        "TimeLimitEnabled": false,
        "TimeLimit": 180,
        "VideoSizeEnabled": false,
        "VideoSizeX": 1280,
        "VideoSizeY": 720,
        "BitRateEnabled": false,
        "BitRateK": 20000,
        "DisplayIdEnabled": false,
        "DisplayId": ""
    }
}